{
    "tbTimebars": [{
        "tbID": "525",
        "tbSelfKey2": 0,
        "tbName": "My New Portfolio",
        "tbType": "Portfolio",
        "tbL1": "My Portfolio",
        "tbL2": "My Project or Program",
        "tbL3": "My SubProject or Project if program above it",
        "tbL4": "My Task or my SubProject if program above",
        "tbL5": "My Allocation or task if program above",
        "tbStart": "22-Oct-2018",
        "tbFinish": "22-Dec-2018",
        "tbDuration": "45",
        "tbCoordTop": "107",
        "tbCoordLeft": "210",
        "tbResID": "a0",
        "tbCalendar": "0",
        "tbPercentTimeOn": "0",
        "tbCustomerID": "44",
        "tbRemainingDuration": "45",
        "tbOwner": "a0",
        "tbMetaDataID": "ao",
        "tbBLID": "a0",
        "tbPredecessor": "a0",
        "tbAStart": "",
        "tbAFinish": "",
        "tbWork": "0",
        "tbAWork": "0",
        "tbWorkRemaining": "0",
        "tbPercentComplete": "0",
        "tbConstraintType": "a0",
        "tbConstraintDate": "a0",
        "tbFloat": 0,
        "tbFreeFloat": 0,
        "tbExpHoursPerWeek": 0,
        "tbCostID": "a0",
        "tbCost": 0,
        "tbCostRemaining": 0,
        "tbACost": 0,
        "tbPayRate": 0,
        "tbCostType": "a0",
        "canvasNo": 1,
        "tbAzureID": "a0",
        "kbCoordTop": 0,
        "kbCoordLeft": 0,
        "tbHierarchyOrder": 1,
        "focdItemCoordLeft": 0,
        "focdItemCoordTop": 1,
        "tbBarColor": "a1",
        "tbTextColor": "a1"        
    }, {
        "tbID": "526",
        "tbSelfKey2": "525",
        "tbName": "My New Project",
        "tbType": "Project",
        "tbL1": "My Portfolio",
        "tbL2": "My Project or Program",
        "tbL3": "My SubProject or Project if program above it",
        "tbL4": "My Task or my SubProject if program above",
        "tbL5": "My Allocation or task if program above",
        "tbStart": "22-Oct-2018",
        "tbFinish": "22-Dec-2018",
        "tbDuration": "45",
        "tbCoordTop": "107",
        "tbCoordLeft": "210",
        "tbResID": "a0",
        "tbCalendar": "0",
        "tbPercentTimeOn": "0",
        "tbCustomerID": "44",
        "tbRemainingDuration": "45",
        "tbOwner": "a0",
        "tbMetaDataID": "ao",
        "tbBLID": "a0",
        "tbPredecessor": "a0",
        "tbAStart": "",
        "tbAFinish": "",
        "tbWork": "0",
        "tbAWork": "0",
        "tbWorkRemaining": "0",
        "tbPercentComplete": "0",
        "tbConstraintType": "a0",
        "tbConstraintDate": "a0",
        "tbFloat": 0,
        "tbFreeFloat": 0,
        "tbExpHoursPerWeek": 0,
        "tbCostID": "a0",
        "tbCost": 0,
        "tbCostRemaining": 0,
        "tbACost": 0,
        "tbPayRate": 0,
        "tbCostType": "a0",
        "canvasNo": 1,
        "tbAzureID": "a0",
        "kbCoordTop": 0,
        "kbCoordLeft": 0,
        "tbHierarchyOrder": 1,
        "focdItemCoordLeft": 0,
        "focdItemCoordTop": 1,
        "tbBarColor": "a1",
        "tbTextColor": "a1" 
    }, {
        "tbID": "527",
        "tbSelfKey2": "525",
        "tbName": "My New Task",
        "tbType": "Task",
        "tbL1": "My Portfolio",
        "tbL2": "My Project or Program",
        "tbL3": "My SubProject or Project if program above it",
        "tbL4": "My Task or my SubProject if program above",
        "tbL5": "My Allocation or task if program above",
        "tbStart": "22-Oct-2018",
        "tbFinish": "22-Dec-2018",
        "tbDuration": "45",
        "tbCoordTop": "107",
        "tbCoordLeft": "210",
        "tbResID": "a0",
        "tbCalendar": "0",
        "tbPercentTimeOn": "0",
        "tbCustomerID": "44",
        "tbRemainingDuration": "45",
        "tbOwner": "a0",
        "tbMetaDataID": "ao",
        "tbBLID": "a0",
        "tbPredecessor": "a0",
        "tbAStart": "",
        "tbAFinish": "",
        "tbWork": "0",
        "tbAWork": "0",
        "tbWorkRemaining": "0",
        "tbPercentComplete": "0",
        "tbConstraintType": "a0",
        "tbConstraintDate": "a0",
        "tbFloat": 0,
        "tbFreeFloat": 0,
        "tbExpHoursPerWeek": 0,
        "tbCostID": "a0",
        "tbCost": 0,
        "tbCostRemaining": 0,
        "tbACost": 0,
        "tbPayRate": 0,
        "tbCostType": "a0",
        "canvasNo": 1,
        "tbAzureID": "a0",
        "kbCoordTop": 0,
        "kbCoordLeft": 0,
        "tbHierarchyOrder": 1,
        "focdItemCoordLeft": 0,
        "focdItemCoordTop": 1,
        "tbBarColor": "a1",
        "tbTextColor": "a1" 
    }]
}